Chapter 10 Environmental hazards-spatial models | Spatio-temporal methods in environmental epidemiology
…
Mtl_centroids_utm <- spTransform(Mtl_centroids,
                        CRS("+proj=utm +zone=18 +ellps=WGS72"))
# Save the utm as a data frame
Mtl_centroids_df <- as.data.frame(Mtl_centroids_utm)

predCoords <- unname(as.matrix(Mtl_centroids_df))/1000

Following the posterior predictive distribution we have to define a model for the predictions.

library(coda)

tidy_post_samples <- mcmc.out$samples %>% tidy_draws()
tidy_post_samples

## # A tibble: 2,142 × 9
##    .chain .iteration .draw   beta0     beta1   beta2   phi sigma_sq   tau_sq
##     <int>      <int> <int>   <dbl>     <dbl>   <dbl> <dbl>    <dbl>    <dbl>
##  1      1          1     1 0.0980   0.110    -0.0488  3.59   0.0746 0.000619
##  2      1          2     2 0.158    0.0777    0.0383  4.17   0.0869 0.000210
##  3      1          3     3 0.00777  0.0466    0.104   7.47   0.0961 0.00990 
##  4      1          4     4 0.174   -0.0112    0.134   4.55   0.0350 0.0149  
##  5      1          5     5 0.0609  -0.0300    0.113   3.95   0.0548 0.0139  
##  6      1          6     6 0.213    0.143     0.0596  2.50   0.0787 0.00578 
##  7      1          7     7 0.192    0.0411    0.155   2.97   0.0447 0.00701 
##  8      1          8     8 0.168    0.0707    0.132   4.26   0.106  0.00935 
##  9      1          9     9 0.243   -0.000570  0.0980  6.01   0.0854 0.00263 
## 10      1         10    10 0.157    0.0887    0.0646  3.11   0.0465 0.00635 
## # … with 2,132 more rows
…
